{
  "bib_entries_by_keywords": {
    "addit infant": [
      187, 
      565, 
      771, 
      1132, 
      1150
    ], 
    "attent infant": [
      295, 
      689, 
      1132, 
      1150
    ], 
    "behavior infant": [
      115, 
      295, 
      304, 
      370, 
      689, 
      747, 
      1128, 
      1132, 
      1150, 
      1192
    ], 
    "child gestur": [
      55, 
      628, 
      763, 
      931, 
      1180
    ], 
    "children": [
      55, 
      134, 
      624, 
      628, 
      732, 
      752, 
      763, 
      840, 
      882, 
      931, 
      993, 
      1108, 
      1180
    ], 
    "children develop": [
      134, 
      732, 
      840, 
      882
    ], 
    "children gestur": [
      624, 
      628, 
      931, 
      1180
    ], 
    "children point": [
      229, 
      840, 
      957, 
      993
    ], 
    "children produc": [
      55, 
      624, 
      628, 
      840, 
      882, 
      931, 
      1180
    ], 
    "children young": [
      134, 
      628, 
      732, 
      840, 
      882
    ], 
    "code gestur": [
      55, 
      445, 
      624, 
      763
    ], 
    "communic gestur": [
      149, 
      445, 
      628, 
      763, 
      855, 
      931, 
      957, 
      1108
    ], 
    "declar point": [
      229, 
      370, 
      565, 
      1175
    ], 
    "develop infant": [
      370, 
      689, 
      1128, 
      1132
    ], 
    "direct reach": [
      139, 
      295, 
      747, 
      1192
    ], 
    "experiment point": [
      229, 
      771, 
      957, 
      993
    ], 
    "gestur": [
      55, 
      134, 
      149, 
      182, 
      445, 
      624, 
      628, 
      732, 
      752, 
      763, 
      840, 
      855, 
      924, 
      931, 
      1108, 
      1128, 
      1180
    ], 
    "gestur icon": [
      445, 
      624, 
      732, 
      752, 
      931, 
      1108
    ], 
    "gestur infant": [
      370, 
      855, 
      1128, 
      1150
    ], 
    "gestur point": [
      55, 
      182, 
      229, 
      370, 
      445, 
      628, 
      752, 
      771, 
      855, 
      931, 
      957, 
      1108, 
      1132, 
      1175, 
      1180
    ], 
    "gestur produc": [
      55, 
      182, 
      445, 
      624, 
      628, 
      931, 
      1180
    ], 
    "gestur product": [
      182, 
      445, 
      624, 
      931
    ], 
    "gestur reveal": [
      445, 
      624, 
      752, 
      931
    ], 
    "gestur symbol": [
      149, 
      732, 
      752, 
      763, 
      931, 
      1108
    ], 
    "gestur type": [
      182, 
      445, 
      624, 
      752
    ], 
    "human infant": [
      115, 
      187, 
      295, 
      304, 
      370, 
      565, 
      1132, 
      1150
    ], 
    "infant": [
      76, 
      115, 
      139, 
      149, 
      187, 
      295, 
      304, 
      370, 
      565, 
      689, 
      747, 
      771, 
      1128, 
      1132, 
      1150, 
      1175, 
      1192, 
      1280
    ], 
    "infant learn": [
      115, 
      187, 
      1128, 
      1132, 
      1150
    ], 
    "infant older": [
      115, 
      187, 
      565, 
      689, 
      771, 
      1132
    ], 
    "infant percept": [
      76, 
      304, 
      689, 
      1132, 
      1192
    ], 
    "infant point": [
      370, 
      565, 
      689, 
      771, 
      957, 
      1132, 
      1150, 
      1175
    ], 
    "infant reach": [
      115, 
      139, 
      295, 
      304, 
      689, 
      747, 
      1150, 
      1192
    ], 
    "infant receiv": [
      304, 
      370, 
      771, 
      1150
    ], 
    "infant respons": [
      76, 
      370, 
      689, 
      747, 
      771, 
      1132
    ], 
    "infant retriev": [
      187, 
      295, 
      304
    ], 
    "infant seat": [
      115, 
      187, 
      295
    ], 
    "infant sensit": [
      304, 
      370, 
      689, 
      1132, 
      1150, 
      1192
    ], 
    "infant show": [
      76, 
      115, 
      565, 
      993, 
      1132, 
      1192
    ], 
    "infant studi": [
      115, 
      565, 
      689, 
      771, 
      1150
    ], 
    "infant understand": [
      304, 
      565, 
      689, 
      1132, 
      1150, 
      1280
    ], 
    "infant understood": [
      565, 
      771, 
      1128
    ], 
    "infant young": [
      76, 
      115, 
      304, 
      370, 
      689, 
      1128, 
      1132, 
      1192
    ], 
    "infant younger": [
      115, 
      187, 
      689, 
      1132
    ], 
    "languag": [
      149, 
      229, 
      855, 
      1128
    ], 
    "movement": [
      76, 
      134, 
      149, 
      1192
    ], 
    "object": [
      76, 
      304, 
      732, 
      1192
    ], 
    "old point": [
      370, 
      565, 
      957, 
      993, 
      1175
    ], 
    "point": [
      229, 
      370, 
      565, 
      771, 
      855, 
      882, 
      957, 
      993, 
      1132, 
      1150, 
      1175
    ], 
    "reach": [
      76, 
      115, 
      139, 
      187, 
      295, 
      304, 
      689, 
      747, 
      1192, 
      1280
    ], 
    "task": [
      55, 
      747, 
      855
    ]
  }, 
  "keyword_occurrences": {
    "addit infant": "additional infants", 
    "attent infant": "infants attention", 
    "behavior infant": "infant behavior", 
    "child gestur": "child gesture", 
    "children": "children", 
    "children develop": "children develop", 
    "children gestur": "childrens gestures", 
    "children point": "children pointed", 
    "children produc": "children produced", 
    "children young": "young children", 
    "code gestur": "gesture coding", 
    "communic gestur": "communicative gestures", 
    "declar point": "declarative pointing", 
    "develop infant": "infant development", 
    "direct reach": "reaches directed", 
    "experiment point": "experimenter pointed", 
    "gestur": "gestures", 
    "gestur icon": "iconic gestures", 
    "gestur infant": "infants gestures", 
    "gestur point": "pointing gestures", 
    "gestur produc": "gestures produced", 
    "gestur product": "gesture production", 
    "gestur reveal": "gestures reveal", 
    "gestur symbol": "symbolic gesturing", 
    "gestur type": "gesture types", 
    "human infant": "human infants", 
    "infant": "infants", 
    "infant learn": "infants learn", 
    "infant older": "older infants", 
    "infant percept": "infants perception", 
    "infant point": "infant pointing", 
    "infant reach": "infants reached", 
    "infant receiv": "infants received", 
    "infant respons": "infants responses", 
    "infant retriev": "infants retrieved", 
    "infant seat": "infant seat", 
    "infant sensit": "infants sensitivity", 
    "infant show": "infants showed", 
    "infant studi": "infant studies", 
    "infant understand": "infants understanding", 
    "infant understood": "infants understood", 
    "infant young": "young infants", 
    "infant younger": "younger infants", 
    "languag": "language", 
    "movement": "movement", 
    "object": "objects", 
    "old point": "olds point", 
    "point": "pointing", 
    "reach": "reaching", 
    "task": "tasks"
  }, 
  "number_of_articles_by_keyword": [
    [
      "infant", 
      18
    ], 
    [
      "gestur", 
      17
    ], 
    [
      "gestur point", 
      15
    ], 
    [
      "children", 
      13
    ], 
    [
      "point", 
      11
    ], 
    [
      "reach", 
      10
    ], 
    [
      "behavior infant", 
      10
    ], 
    [
      "infant young", 
      8
    ], 
    [
      "infant reach", 
      8
    ], 
    [
      "infant point", 
      8
    ], 
    [
      "human infant", 
      8
    ], 
    [
      "communic gestur", 
      8
    ], 
    [
      "gestur produc", 
      7
    ], 
    [
      "children produc", 
      7
    ], 
    [
      "infant understand", 
      6
    ], 
    [
      "infant show", 
      6
    ], 
    [
      "infant sensit", 
      6
    ], 
    [
      "infant respons", 
      6
    ], 
    [
      "infant older", 
      6
    ], 
    [
      "gestur symbol", 
      6
    ], 
    [
      "gestur icon", 
      6
    ], 
    [
      "old point", 
      5
    ], 
    [
      "infant studi", 
      5
    ], 
    [
      "infant percept", 
      5
    ], 
    [
      "infant learn", 
      5
    ], 
    [
      "children young", 
      5
    ], 
    [
      "child gestur", 
      5
    ], 
    [
      "addit infant", 
      5
    ], 
    [
      "object", 
      4
    ], 
    [
      "movement", 
      4
    ], 
    [
      "languag", 
      4
    ], 
    [
      "infant younger", 
      4
    ], 
    [
      "infant receiv", 
      4
    ], 
    [
      "gestur type", 
      4
    ], 
    [
      "gestur reveal", 
      4
    ], 
    [
      "gestur product", 
      4
    ], 
    [
      "gestur infant", 
      4
    ], 
    [
      "experiment point", 
      4
    ], 
    [
      "direct reach", 
      4
    ], 
    [
      "develop infant", 
      4
    ], 
    [
      "declar point", 
      4
    ], 
    [
      "code gestur", 
      4
    ], 
    [
      "children point", 
      4
    ], 
    [
      "children gestur", 
      4
    ], 
    [
      "children develop", 
      4
    ], 
    [
      "attent infant", 
      4
    ], 
    [
      "task", 
      3
    ], 
    [
      "infant understood", 
      3
    ], 
    [
      "infant seat", 
      3
    ], 
    [
      "infant retriev", 
      3
    ]
  ]
}